<?xml version="1.0" encoding="UTF-8"?>
<testsuite xmlns:xsi="http://www.w3.org/2001/XMLSchema-instance" xsi:noNamespaceSchemaLocation="https://maven.apache.org/surefire/maven-surefire-plugin/xsd/surefire-test-report.xsd" name="test.com.smile.techtest.test.ConversionTest" time="0.108" tests="3" errors="0" skipped="0" failures="0">
  <properties>
    <property name="sun.desktop" value="gnome"/>
    <property name="awt.toolkit" value="sun.awt.X11.XToolkit"/>
    <property name="file.encoding.pkg" value="sun.io"/>
    <property name="java.specification.version" value="1.8"/>
    <property name="sun.cpu.isalist" value=""/>
    <property name="sun.jnu.encoding" value="UTF-8"/>
    <property name="java.class.path" value="/home/ludo/eclipse-workspace/SmileTechTest/target/test-classes:/home/ludo/eclipse-workspace/SmileTechTest/target/classes:/home/ludo/.m2/repository/org/eclipse/persistence/eclipselink/2.5.1/eclipselink-2.5.1.jar:/home/ludo/.m2/repository/org/eclipse/persistence/commonj.sdo/2.1.1/commonj.sdo-2.1.1.jar:/home/ludo/.m2/repository/org/eclipse/persistence/javax.persistence/2.0.0/javax.persistence-2.0.0.jar:/home/ludo/.m2/repository/org/springframework/ws/spring-ws-core/2.4.0.RELEASE/spring-ws-core-2.4.0.RELEASE.jar:/home/ludo/.m2/repository/commons-logging/commons-logging/1.1.3/commons-logging-1.1.3.jar:/home/ludo/.m2/repository/org/springframework/ws/spring-xml/2.4.0.RELEASE/spring-xml-2.4.0.RELEASE.jar:/home/ludo/.m2/repository/org/springframework/spring-context/4.2.7.RELEASE/spring-context-4.2.7.RELEASE.jar:/home/ludo/.m2/repository/org/springframework/spring-aop/4.2.7.RELEASE/spring-aop-4.2.7.RELEASE.jar:/home/ludo/.m2/repository/aopalliance/aopalliance/1.0/aopalliance-1.0.jar:/home/ludo/.m2/repository/org/springframework/spring-beans/4.2.7.RELEASE/spring-beans-4.2.7.RELEASE.jar:/home/ludo/.m2/repository/org/springframework/spring-core/4.2.7.RELEASE/spring-core-4.2.7.RELEASE.jar:/home/ludo/.m2/repository/org/springframework/spring-oxm/4.2.7.RELEASE/spring-oxm-4.2.7.RELEASE.jar:/home/ludo/.m2/repository/org/springframework/spring-web/4.2.7.RELEASE/spring-web-4.2.7.RELEASE.jar:/home/ludo/.m2/repository/org/springframework/spring-webmvc/4.2.7.RELEASE/spring-webmvc-4.2.7.RELEASE.jar:/home/ludo/.m2/repository/org/springframework/spring-expression/4.2.7.RELEASE/spring-expression-4.2.7.RELEASE.jar:/home/ludo/.m2/repository/jdom/jdom/1.0/jdom-1.0.jar:/home/ludo/.m2/repository/jaxen/jaxen/1.1/jaxen-1.1.jar:/home/ludo/.m2/repository/dom4j/dom4j/1.6.1/dom4j-1.6.1.jar:/home/ludo/.m2/repository/xml-apis/xml-apis/1.3.02/xml-apis-1.3.02.jar:/home/ludo/.m2/repository/xerces/xercesImpl/2.6.2/xercesImpl-2.6.2.jar:/home/ludo/.m2/repository/xom/xom/1.0/xom-1.0.jar:/home/ludo/.m2/repository/xerces/xmlParserAPIs/2.6.2/xmlParserAPIs-2.6.2.jar:/home/ludo/.m2/repository/xalan/xalan/2.6.0/xalan-2.6.0.jar:/home/ludo/.m2/repository/com/ibm/icu/icu4j/2.6.1/icu4j-2.6.1.jar:/home/ludo/.m2/repository/wsdl4j/wsdl4j/1.6.2/wsdl4j-1.6.2.jar:/home/ludo/.m2/repository/org/postgresql/postgresql/42.2.19/postgresql-42.2.19.jar:/home/ludo/.m2/repository/org/checkerframework/checker-qual/3.5.0/checker-qual-3.5.0.jar:/home/ludo/.m2/repository/org/hibernate/hibernate-core/5.2.2.Final/hibernate-core-5.2.2.Final.jar:/home/ludo/.m2/repository/org/jboss/logging/jboss-logging/3.3.0.Final/jboss-logging-3.3.0.Final.jar:/home/ludo/.m2/repository/org/hibernate/javax/persistence/hibernate-jpa-2.1-api/1.0.0.Final/hibernate-jpa-2.1-api-1.0.0.Final.jar:/home/ludo/.m2/repository/org/javassist/javassist/3.20.0-GA/javassist-3.20.0-GA.jar:/home/ludo/.m2/repository/antlr/antlr/2.7.7/antlr-2.7.7.jar:/home/ludo/.m2/repository/org/apache/geronimo/specs/geronimo-jta_1.1_spec/1.1.1/geronimo-jta_1.1_spec-1.1.1.jar:/home/ludo/.m2/repository/org/jboss/jandex/2.0.0.Final/jandex-2.0.0.Final.jar:/home/ludo/.m2/repository/com/fasterxml/classmate/1.3.0/classmate-1.3.0.jar:/home/ludo/.m2/repository/org/hibernate/common/hibernate-commons-annotations/5.0.1.Final/hibernate-commons-annotations-5.0.1.Final.jar:/home/ludo/.m2/repository/javax/enterprise/cdi-api/1.1/cdi-api-1.1.jar:/home/ludo/.m2/repository/javax/el/el-api/2.2/el-api-2.2.jar:/home/ludo/.m2/repository/org/jboss/spec/javax/interceptor/jboss-interceptors-api_1.1_spec/1.0.0.Beta1/jboss-interceptors-api_1.1_spec-1.0.0.Beta1.jar:/home/ludo/.m2/repository/javax/annotation/jsr250-api/1.0/jsr250-api-1.0.jar:/home/ludo/.m2/repository/javax/inject/javax.inject/1/javax.inject-1.jar:/home/ludo/.m2/repository/org/springframework/spring-tx/5.3.4/spring-tx-5.3.4.jar:/home/ludo/.m2/repository/com/h2database/h2/1.4.197/h2-1.4.197.jar:/home/ludo/.m2/repository/org/mockito/mockito-core/2.23.0/mockito-core-2.23.0.jar:/home/ludo/.m2/repository/net/bytebuddy/byte-buddy/1.9.0/byte-buddy-1.9.0.jar:/home/ludo/.m2/repository/net/bytebuddy/byte-buddy-agent/1.9.0/byte-buddy-agent-1.9.0.jar:/home/ludo/.m2/repository/org/objenesis/objenesis/2.6/objenesis-2.6.jar:/home/ludo/.m2/repository/junit/junit/4.13.2/junit-4.13.2.jar:/home/ludo/.m2/repository/org/hamcrest/hamcrest-core/1.3/hamcrest-core-1.3.jar:"/>
    <property name="java.vm.vendor" value="Oracle Corporation"/>
    <property name="sun.arch.data.model" value="64"/>
    <property name="java.vendor.url" value="http://java.oracle.com/"/>
    <property name="user.timezone" value=""/>
    <property name="java.vm.specification.version" value="1.8"/>
    <property name="os.name" value="Linux"/>
    <property name="user.country" value="FR"/>
    <property name="sun.java.launcher" value="SUN_STANDARD"/>
    <property name="sun.boot.library.path" value="/home/ludo/dev/eclipse/jdk1.8.0_281/jre/lib/amd64"/>
    <property name="sun.java.command" value="/home/ludo/eclipse-workspace/SmileTechTest/target/surefire/surefirebooter6354296792783516821.jar /home/ludo/eclipse-workspace/SmileTechTest/target/surefire 2021-02-20T14-59-20_350-jvmRun1 surefire103293717991692345tmp surefire_03654665289822044149tmp"/>
    <property name="surefire.test.class.path" value="/home/ludo/eclipse-workspace/SmileTechTest/target/test-classes:/home/ludo/eclipse-workspace/SmileTechTest/target/classes:/home/ludo/.m2/repository/org/eclipse/persistence/eclipselink/2.5.1/eclipselink-2.5.1.jar:/home/ludo/.m2/repository/org/eclipse/persistence/commonj.sdo/2.1.1/commonj.sdo-2.1.1.jar:/home/ludo/.m2/repository/org/eclipse/persistence/javax.persistence/2.0.0/javax.persistence-2.0.0.jar:/home/ludo/.m2/repository/org/springframework/ws/spring-ws-core/2.4.0.RELEASE/spring-ws-core-2.4.0.RELEASE.jar:/home/ludo/.m2/repository/commons-logging/commons-logging/1.1.3/commons-logging-1.1.3.jar:/home/ludo/.m2/repository/org/springframework/ws/spring-xml/2.4.0.RELEASE/spring-xml-2.4.0.RELEASE.jar:/home/ludo/.m2/repository/org/springframework/spring-context/4.2.7.RELEASE/spring-context-4.2.7.RELEASE.jar:/home/ludo/.m2/repository/org/springframework/spring-aop/4.2.7.RELEASE/spring-aop-4.2.7.RELEASE.jar:/home/ludo/.m2/repository/aopalliance/aopalliance/1.0/aopalliance-1.0.jar:/home/ludo/.m2/repository/org/springframework/spring-beans/4.2.7.RELEASE/spring-beans-4.2.7.RELEASE.jar:/home/ludo/.m2/repository/org/springframework/spring-core/4.2.7.RELEASE/spring-core-4.2.7.RELEASE.jar:/home/ludo/.m2/repository/org/springframework/spring-oxm/4.2.7.RELEASE/spring-oxm-4.2.7.RELEASE.jar:/home/ludo/.m2/repository/org/springframework/spring-web/4.2.7.RELEASE/spring-web-4.2.7.RELEASE.jar:/home/ludo/.m2/repository/org/springframework/spring-webmvc/4.2.7.RELEASE/spring-webmvc-4.2.7.RELEASE.jar:/home/ludo/.m2/repository/org/springframework/spring-expression/4.2.7.RELEASE/spring-expression-4.2.7.RELEASE.jar:/home/ludo/.m2/repository/jdom/jdom/1.0/jdom-1.0.jar:/home/ludo/.m2/repository/jaxen/jaxen/1.1/jaxen-1.1.jar:/home/ludo/.m2/repository/dom4j/dom4j/1.6.1/dom4j-1.6.1.jar:/home/ludo/.m2/repository/xml-apis/xml-apis/1.3.02/xml-apis-1.3.02.jar:/home/ludo/.m2/repository/xerces/xercesImpl/2.6.2/xercesImpl-2.6.2.jar:/home/ludo/.m2/repository/xom/xom/1.0/xom-1.0.jar:/home/ludo/.m2/repository/xerces/xmlParserAPIs/2.6.2/xmlParserAPIs-2.6.2.jar:/home/ludo/.m2/repository/xalan/xalan/2.6.0/xalan-2.6.0.jar:/home/ludo/.m2/repository/com/ibm/icu/icu4j/2.6.1/icu4j-2.6.1.jar:/home/ludo/.m2/repository/wsdl4j/wsdl4j/1.6.2/wsdl4j-1.6.2.jar:/home/ludo/.m2/repository/org/postgresql/postgresql/42.2.19/postgresql-42.2.19.jar:/home/ludo/.m2/repository/org/checkerframework/checker-qual/3.5.0/checker-qual-3.5.0.jar:/home/ludo/.m2/repository/org/hibernate/hibernate-core/5.2.2.Final/hibernate-core-5.2.2.Final.jar:/home/ludo/.m2/repository/org/jboss/logging/jboss-logging/3.3.0.Final/jboss-logging-3.3.0.Final.jar:/home/ludo/.m2/repository/org/hibernate/javax/persistence/hibernate-jpa-2.1-api/1.0.0.Final/hibernate-jpa-2.1-api-1.0.0.Final.jar:/home/ludo/.m2/repository/org/javassist/javassist/3.20.0-GA/javassist-3.20.0-GA.jar:/home/ludo/.m2/repository/antlr/antlr/2.7.7/antlr-2.7.7.jar:/home/ludo/.m2/repository/org/apache/geronimo/specs/geronimo-jta_1.1_spec/1.1.1/geronimo-jta_1.1_spec-1.1.1.jar:/home/ludo/.m2/repository/org/jboss/jandex/2.0.0.Final/jandex-2.0.0.Final.jar:/home/ludo/.m2/repository/com/fasterxml/classmate/1.3.0/classmate-1.3.0.jar:/home/ludo/.m2/repository/org/hibernate/common/hibernate-commons-annotations/5.0.1.Final/hibernate-commons-annotations-5.0.1.Final.jar:/home/ludo/.m2/repository/javax/enterprise/cdi-api/1.1/cdi-api-1.1.jar:/home/ludo/.m2/repository/javax/el/el-api/2.2/el-api-2.2.jar:/home/ludo/.m2/repository/org/jboss/spec/javax/interceptor/jboss-interceptors-api_1.1_spec/1.0.0.Beta1/jboss-interceptors-api_1.1_spec-1.0.0.Beta1.jar:/home/ludo/.m2/repository/javax/annotation/jsr250-api/1.0/jsr250-api-1.0.jar:/home/ludo/.m2/repository/javax/inject/javax.inject/1/javax.inject-1.jar:/home/ludo/.m2/repository/org/springframework/spring-tx/5.3.4/spring-tx-5.3.4.jar:/home/ludo/.m2/repository/com/h2database/h2/1.4.197/h2-1.4.197.jar:/home/ludo/.m2/repository/org/mockito/mockito-core/2.23.0/mockito-core-2.23.0.jar:/home/ludo/.m2/repository/net/bytebuddy/byte-buddy/1.9.0/byte-buddy-1.9.0.jar:/home/ludo/.m2/repository/net/bytebuddy/byte-buddy-agent/1.9.0/byte-buddy-agent-1.9.0.jar:/home/ludo/.m2/repository/org/objenesis/objenesis/2.6/objenesis-2.6.jar:/home/ludo/.m2/repository/junit/junit/4.13.2/junit-4.13.2.jar:/home/ludo/.m2/repository/org/hamcrest/hamcrest-core/1.3/hamcrest-core-1.3.jar:"/>
    <property name="sun.cpu.endian" value="little"/>
    <property name="user.home" value="/home/ludo"/>
    <property name="user.language" value="fr"/>
    <property name="java.specification.vendor" value="Oracle Corporation"/>
    <property name="java.home" value="/home/ludo/dev/eclipse/jdk1.8.0_281/jre"/>
    <property name="basedir" value="/home/ludo/eclipse-workspace/SmileTechTest"/>
    <property name="file.separator" value="/"/>
    <property name="line.separator" value="&#10;"/>
    <property name="java.vm.specification.vendor" value="Oracle Corporation"/>
    <property name="java.specification.name" value="Java Platform API Specification"/>
    <property name="java.awt.graphicsenv" value="sun.awt.X11GraphicsEnvironment"/>
    <property name="surefire.real.class.path" value="/home/ludo/eclipse-workspace/SmileTechTest/target/surefire/surefirebooter6354296792783516821.jar"/>
    <property name="sun.boot.class.path" value="/home/ludo/dev/eclipse/jdk1.8.0_281/jre/lib/resources.jar:/home/ludo/dev/eclipse/jdk1.8.0_281/jre/lib/rt.jar:/home/ludo/dev/eclipse/jdk1.8.0_281/jre/lib/sunrsasign.jar:/home/ludo/dev/eclipse/jdk1.8.0_281/jre/lib/jsse.jar:/home/ludo/dev/eclipse/jdk1.8.0_281/jre/lib/jce.jar:/home/ludo/dev/eclipse/jdk1.8.0_281/jre/lib/charsets.jar:/home/ludo/dev/eclipse/jdk1.8.0_281/jre/lib/jfr.jar:/home/ludo/dev/eclipse/jdk1.8.0_281/jre/classes"/>
    <property name="sun.management.compiler" value="HotSpot 64-Bit Tiered Compilers"/>
    <property name="java.runtime.version" value="1.8.0_281-b09"/>
    <property name="user.name" value="ludo"/>
    <property name="path.separator" value=":"/>
    <property name="os.version" value="5.4.0-65-generic"/>
    <property name="java.endorsed.dirs" value="/home/ludo/dev/eclipse/jdk1.8.0_281/jre/lib/endorsed"/>
    <property name="java.runtime.name" value="Java(TM) SE Runtime Environment"/>
    <property name="file.encoding" value="UTF-8"/>
    <property name="java.vm.name" value="Java HotSpot(TM) 64-Bit Server VM"/>
    <property name="localRepository" value="/home/ludo/.m2/repository"/>
    <property name="java.vendor.url.bug" value="http://bugreport.sun.com/bugreport/"/>
    <property name="java.io.tmpdir" value="/tmp"/>
    <property name="java.version" value="1.8.0_281"/>
    <property name="user.dir" value="/home/ludo/eclipse-workspace/SmileTechTest"/>
    <property name="os.arch" value="amd64"/>
    <property name="java.vm.specification.name" value="Java Virtual Machine Specification"/>
    <property name="java.awt.printerjob" value="sun.print.PSPrinterJob"/>
    <property name="sun.os.patch.level" value="unknown"/>
    <property name="java.library.path" value="/usr/java/packages/lib/amd64:/usr/lib64:/lib64:/lib:/usr/lib"/>
    <property name="java.vm.info" value="mixed mode"/>
    <property name="java.vendor" value="Oracle Corporation"/>
    <property name="java.vm.version" value="25.281-b09"/>
    <property name="java.ext.dirs" value="/home/ludo/dev/eclipse/jdk1.8.0_281/jre/lib/ext:/usr/java/packages/lib/ext"/>
    <property name="sun.io.unicode.encoding" value="UnicodeLittle"/>
    <property name="java.class.version" value="52.0"/>
  </properties>
  <testcase name="TestAddressConversion" classname="test.com.smile.techtest.test.ConversionTest" time="0.014"/>
  <testcase name="testConversionProduct" classname="test.com.smile.techtest.test.ConversionTest" time="0.009"/>
  <testcase name="testConversionMerchant" classname="test.com.smile.techtest.test.ConversionTest" time="0.001"/>
</testsuite>