test/com/smile/techtest/test/IntegrationTest.class
test/com/smile/techtest/test/EntityManagerProvider.class
test/com/smile/techtest/test/EntityManagerProvider$1.class
test/com/smile/techtest/test/ConversionTest.class
